{
  "title": {
    "en": "Digital Publishing with Minimal Computing",
    "es": "Ediciones digitales con minimal computing"
  },
  "nav": {
    "en": [
      { "label": "Home", "link": "/"},
      { "label": "Syllabus", "link": "/syllabus"},
      { "label": "Projects", "link": "/projects"}
    ],
    "es": [
      { "label": "Inicio", "link": "/"},
      { "label": "Programa", "link": "/programa"},
      { "label": "Proyectos", "link": "/proyectos"}
    ]
  },
  "times": {
    "en": "Class meets",
    "es": "Día y horario de clases"
  },
  "prerequisites": {
    "en": "Prerequisites",
    "es": "Requisitos"
  }
}